<svg width="640" height="500" xmlns="http://www.w3.org/2000/svg" xmlns:svg="http://www.w3.org/2000/svg">
 <!-- Created with SVG-edit - http://svg-edit.googlecode.com/ -->
 <g>
  <title>Layer 1</title>
  <g id="svg_1">
   <g id="svg_2">
    <path id="svg_3" d="m254.35345,311.80554c1.79343,6.60077 8.84256,12.00592 15.69238,12.00592l262.28729,0c6.84985,0 12.45435,5.60446 12.45435,12.45432l0,24.90857c0,6.84985 -5.60449,12.45428 -12.45435,12.45428l-298.90289,0c-6.84985,0 -13.89899,-5.43008 -15.6675,-12.03085l-80.00633,-299.74979c-1.76851,-6.62568 -8.81763,-12.03084 -15.6675,-12.03084l-38.11012,0c-6.84985,0 -12.45428,-5.60443 -12.45428,-12.45429l0,-24.90857c0,-6.84986 5.60443,-12.45429 12.45428,-12.45429l74.72574,0c6.84985,0 13.89899,5.40516 15.66748,12.03084l53.35417,200.11549c1.76851,6.62569 8.81763,12.03084 15.6675,12.03084l225.19843,0c6.84985,0 13.6748,-5.47989 15.16931,-12.15538l22.41776,-100.23211c1.51938,-6.6755 -2.86453,-12.15538 -9.71439,-12.15538l-213.21738,0c-6.84985,0 -12.45428,-5.60442 -12.45428,-12.45428l0,-24.90858c0,-6.84986 5.60443,-12.45429 12.45428,-12.45429l273.99429,0c6.84985,0 11.23376,5.47989 9.76416,12.15538l-44.41199,199.84149c-1.49451,6.70041 -8.31946,12.1803 -15.16931,12.1803l-250.82935,0c-6.84985,0 -10.98468,5.40515 -9.21617,12.00595l6.97441,25.80527z" clip-rule="evenodd" fill-rule="evenodd"/>
   </g>
   <circle id="svg_4" r="49.81715" cy="448.35435" cx="270.79311" clip-rule="evenodd" fill-rule="evenodd"/>
   <circle id="svg_5" r="49.81715" cy="448.35435" cx="494.97028" clip-rule="evenodd" fill-rule="evenodd"/>
  </g>
 </g>
</svg>