<svg width="640" height="480" xmlns="http://www.w3.org/2000/svg" xmlns:svg="http://www.w3.org/2000/svg">
 <g>
  <title>Layer 1</title>
  <g style="vector-effect: non-scaling-stroke;" id="svg_4">
   <g style="vector-effect: non-scaling-stroke;" id="svg_1">
    <path style="vector-effect: non-scaling-stroke;" id="svg_2" d="m320,49.4c104.54071,0 189.59998,85.0593 189.59998,189.60001s-85.05927,189.59999 -189.59998,189.59999s-189.60001,-85.0593 -189.60001,-189.59999s85.0593,-189.60001 189.60001,-189.60001m0,-47.4c-130.8714,0 -237.00002,106.12861 -237.00002,237.00002c0,130.8951 106.12862,237.00002 237.00002,237.00002c130.89508,0 237,-106.10492 237,-237.00002c0,-130.87141 -106.10492,-237.00002 -237,-237.00002l0,0z"/>
   </g>
   <polygon style="vector-effect: non-scaling-stroke;" id="svg_3" points="438.4999694824219,238.5260009765625 414.79998779296875,262.70001220703125 320,357.5 320,310.1000061035156 367.4000244140625,262.70001220703125 201.49998474121094,262.70001220703125 201.49998474121094,215.3000030517578 367.4000244140625,215.3000030517578 320,167.90000915527344 320,120.5 414.79998779296875,215.3000030517578 " clip-rule="evenodd" fill-rule="evenodd"/>
  </g>
 </g>
</svg>